{
    "photos": {
        "page": 1,
        "pages": 10,
        "perpage": 100,
        "total": 1000,
        "photo": [
            {
                "id": "12345678901",
                "owner": "12345678@N01",
                "secret": "1a2b3c4d5e",
                "server": "1",
                "farm": 1,
                "title": "A cute puppy",
                "ispublic": 1,
                "isfriend": 0,
                "isfamily": 0
            }
        ]
    },
    "stat": "ok"
}